{
  "language": "ru",
  "questions": [
    {
      "type": "text",
      "tooltip": "Напишите здесь что-нибудь",
      "name": "reasonfears",
      "title": "Здесь можно что-то написать",
      "controlType": "textinput",
      "props": {
        "placeholder": "Печатать сюда"
      }
    },
    {
      "type": "text",
      "tooltip": "Здесь можно написать больше",
      "name": "reasonfears_ex",
      "title": "Здесь можно написать войну и мир",
      "controlType": "textinput",
      "expand": true,
      "props": {
        "placeholder": "Печатать сюда"
      }
    },
    {
      "type": "container",
      "tooltip": "Здесь можно разместить разные виджеты",
      "name": "should_have_want_todo",
      "title": "Выберите разные варианты",
      "needRecord": false,
      "props": {
        "questions": [
          {
            "type": "range",
            "needRecord": true,
            "name": "should_todo",
            "title": "Это диапазон",
            "controlType": "numberinput",
            "props": {
              "min": 1,
              "max": 9,
              "initialValue": 5,
              "title": "Это маленькое пояснение",
              "titleMin": "title",
              "titleMax": "title"
            }
          },
          {
            "type": "text",
            "needRecord": true,
            "tooltip": "Это текст",
            "name": "want_todo",
            "title": "Напишите что-нибудь",
            "controlType": "textinput",
            "props": {
              "placeholder": "Печатать сюда"
            }
          },
          {
            "type": "radio",
            "needRecord": true,
            "tooltip": "Выберите что-нибудь",
            "title": "Выберите что-нибудь",
            "name": "have_todo",
            "controlType": "textinput",
            "inputOption": "Другое",
            "props": {
              "options": ["Быть", "Не быть"]
            }
          }
        ]
      }
    },
    {
      "type": "bubbles",
      "tooltip": "Выберите деятельность, которая вам больше всего по душе",
      "title": "Какая деятельность больше всего вам нравится?",
      "name": "goodactivities",
      "controlType": "textinput",
      "needRecord": false,
      "props": {
        "color": "#FFCD00",
        "options": {
          "preset": ["Ни одна не нравится", "Все нравятся"],
          "queries": [
            {
              "filters": [
                { "name": "textinputs.name", "op": "=", "value": "activity" },
                { "name": "textinputs.timestamp", "op": ">=", "value": "${curdate}"}
              ],
              "op": "and",
              "controlType": "textinput"
            },
            {
              "filters": [
                { "name": "textinputs.name", "op": "=", "value": "goodactivities" },
                { "name": "textinputs.timestamp", "op": ">=", "value": "${curdate}"}
              ],
              "op": "and",
              "controlType": "textinput"
            }
          ]
        }
      }
    },
    {
      "type": "label",
      "tooltip": "Выберите эмоции, которые вы испытываете при выполнении данного действия, затем используйте ползунок, чтобы указать, насколько сильны эти эмоции.",
      "name": "choose_emotion",
      "title": "Какие чувства вызывает у вас эта деятельность?",
      "needRecord": false,
      "select": "single",
      "alwaysShow": false,
      "props": {
        "children": [ "Bored", "Stressed", "Grateful", "Sad", "Challenged", "Frustrated", "Tired", "Anxious", "Happy", "Procutive", "Excited", "Meaningful", "Uncertain", "Confused", "Reassured", "Calm", "Lonely", "Overwhelmed" ],
        "forHTML": {
          "type": "range",
          "needRecord": true,
          "name": "emotion",
          "controlType": "numberinput",
          "title": null,
          "props": {
            "min": 1,
            "max": 9,
            "initialValue": 5,
            "titleMin": "Very little",
            "titleMax": "Extremely"
          }
        },
        "classes": {
          "container": "casper-question-all",
          "children": "casper-emotion-buttons-block",
          "forHTML": "casper-emotion-forHTML"
        }
      }
    },
    {
      "type": "label",
      "tooltip": "Выберите эмоции, которые вы испытываете при выполнении данного действия, затем используйте ползунок, чтобы указать, насколько сильны эти эмоции.",
      "name": "choose_values",
      "title": "Здесь вам нужно выбрать все значения",
      "needRecord": false,
      "select": "multiple",
      "alwaysShow": false,
      "props": {
        "children": [ "Первое", "Второе", "Третье" ],
        "forHTML": {
          "type": "range",
          "needRecord": true,
          "name": "emotion",
          "controlType": "numberinput",
          "title": null,
          "props": {
            "min": 1,
            "max": 9,
            "initialValue": 5,
            "titleMin": "Very little",
            "titleMax": "Extremely"
          }
        },
        "classes": {
          "container": "casper-question-all",
          "children": "casper-emotion-buttons-block",
          "forHTML": "casper-emotion-forHTML"
        }
      }
    },
    {
      "type": "radio",
      "tooltip": "Выберите одну из опций или напишите свой вариант",
      "title": "Что вы делаете в данный момент?",
      "name": "activity",
      "controlType": "textinput",
      "inputOption": "Другое",
      "props": {
        "options": ["Читаю", "Работаю с электронной почтой"]
      }
    },
    {
      "type": "radio",
      "tooltip": "some tooltip",
      "title": "Выберите активность",
      "name": "feedback_emotion",
      "controlType": "textinput",
      "props": {
        "options": {
          "query": {
            "filters": [
              { "name": "textinputs.name", "op": "=", "value": "activity" },
              { "name": "textinputs.timestamp", "op": ">=", "value": "${curdate}"}
            ],
            "op": "and",
            "controlType": "textinput"
          },
          "field": "value"
        }
      }
    },
    {
      "type": "range",
      "tooltip": "Оцените вашу продуктивность с помощью ползунка",
      "title": "Насколько вы были продуктивны сегодня?",
      "name": "productivity",
      "controlType": "numberinput",
      "props": {
        "min": 1,
        "max": 9,
        "initialValue": 5,
        "title": "Сегодня я был продуктивен",
        "titleMin": "Очень слабо",
        "titleMax": "Очень сильно"
      }
    }
  ]
}