<svg width="405" height="307" viewBox="0 0 405 307" fill="none" xmlns="http://www.w3.org/2000/svg">
<path d="M62.3698 108.339C62.3698 108.339 59.7002 73.4128 81.3508 68.2577C97.6427 64.3675 91.6999 131.919 112.968 117.623C127.752 107.671 110.384 51.2983 152.465 27.8854C206.795 -2.32944 275.073 12.3961 281.915 78.315C288.757 144.234 305.551 114.377 307.92 94.568C310.288 74.7589 319.236 72.8019 331.58 83.5417C340.456 91.2506 362.8 169.461 315.767 189.58C281.915 204.091 331.7 265.38 229.283 298.411C143.757 325.952 64.3315 270.63 54.81 256.454C47.2502 245.308 44.6167 227.751 68.7554 228.181C97.8702 228.73 112.586 217.198 92.8012 188.2C73.0166 159.202 63.6138 150.797 62.3698 108.339Z" fill="#2D1D26"/>
<path d="M111.122 118.519C108.068 116.996 103.915 107.392 101.167 88.2017C98.4186 69.0109 86.9618 67.5089 82 68.6512L72.1904 111.897L114.557 141.597C122.954 127.128 135.168 101.613 126.007 111.665C116.847 121.718 114.932 120.42 111.122 118.519Z" fill="#2D1D26" stroke="#2D1D26"/>
<path d="M283.844 121.257C292.038 121.257 296.335 116.128 299.083 96.937C301.832 77.7462 313.775 76.6601 319.5 77.8025L326.21 121.257L283.844 150.957C275.447 136.488 265.702 99.3284 274.862 109.381C284.022 119.433 279.584 121.257 283.844 121.257Z" fill="#2D1D26" stroke="#2D1D26"/>
<path d="M190.504 88.6731C190.504 88.6731 232.059 81.5132 232.25 93.0406C232.442 104.568 220.982 117.886 202.729 113.351C184.475 108.816 177.801 90.296 190.504 88.6731Z" fill="#2D1D26"/>
<path d="M251.437 71.8949C251.437 71.8949 251.7 59.1503 239.858 62.0858C228.016 65.0214 233.614 87.6228 243.16 84.6157C245.804 83.7812 248.075 82.0562 249.585 79.7358C251.094 77.4154 251.749 74.6438 251.437 71.8949Z" fill="#2D1D26"/>
<path d="M186.414 70.4392C186.414 70.4392 186.677 57.6945 174.835 60.6301C162.993 63.5656 168.591 86.1671 178.136 83.1599C180.78 82.3255 183.051 80.6005 184.561 78.2801C186.071 75.9597 186.726 73.188 186.414 70.4392Z" fill="#2D1D26"/>
<path d="M68.1376 110.523C68.1376 110.523 65.504 80.5033 86.2292 75.5685C101.825 71.8446 96.2139 133.095 116.573 119.41C130.725 109.883 114.099 55.9208 154.382 33.5088C206.389 4.58554 271.748 18.6816 278.298 81.7827C284.848 144.884 300.924 116.303 303.191 97.3409C305.458 78.3786 314.023 76.5052 325.84 86.786C334.336 94.1653 355.725 169.032 310.702 188.291C278.298 202.182 325.954 260.851 227.916 292.47C146.046 318.834 70.0155 265.877 60.901 252.306C53.6643 241.637 52.1071 233.618 75.2139 234.029C103.084 234.555 117.718 214.93 98.7788 187.172C79.8399 159.414 69.3284 151.166 68.1376 110.523Z" fill="#FFFAEF"/>
<path d="M190.794 91.6979C190.794 91.6979 230.573 84.8441 230.756 95.8788C230.939 106.913 219.97 119.662 202.497 115.321C185.023 110.98 178.634 93.2515 190.794 91.6979Z" fill="#2D1D26"/>
<path d="M249.122 75.6371C249.122 75.6371 249.374 63.4372 238.038 66.2473C226.703 69.0574 232.061 90.6927 241.199 87.8141C243.73 87.0152 245.904 85.364 247.349 83.1428C248.794 80.9216 249.421 78.2684 249.122 75.6371Z" fill="#2D1D26"/>
<path d="M186.878 74.2435C186.878 74.2435 187.13 62.0436 175.794 64.8537C164.458 67.6638 169.817 89.2991 178.955 86.4205C181.485 85.6216 183.66 83.9704 185.105 81.7492C186.55 79.528 187.177 76.8748 186.878 74.2435Z" fill="#2D1D26"/>
<path d="M378.873 14.3424C378.873 16.9597 376.752 19.0818 374.134 19.0818C371.517 19.0818 369.395 16.9597 369.395 14.3424C369.395 11.7251 371.517 9.60297 374.134 9.60297C376.752 9.60297 378.873 11.7251 378.873 14.3424Z" fill="#FF3051"/>
<path d="M374.134 54.6275C374.134 57.2448 372.013 59.3669 369.395 59.3669C366.777 59.3669 364.655 57.2448 364.655 54.6275C364.655 52.0102 366.777 49.8881 369.395 49.8881C372.013 49.8881 374.134 52.0102 374.134 54.6275Z" fill="#FFCD00"/>
<path d="M331.479 11.9727C331.479 14.59 329.358 16.7121 326.739 16.7121C324.122 16.7121 322 14.59 322 11.9727C322 9.35534 324.122 7.23325 326.739 7.23325C329.358 7.23325 331.479 9.35534 331.479 11.9727Z" fill="#C2FB3B"/>
<path d="M377.03 28.5607H372.75C364.022 28.5329 356.166 33.852 352.949 41.9667L348.236 53.7458C347.749 54.9619 348.34 56.3423 349.556 56.8294C350.771 57.3166 352.152 56.7253 352.639 55.5092L357.349 43.7266C359.851 37.4147 365.963 33.2769 372.752 33.3001H377.033C384.918 33.2989 392.158 28.9471 395.859 21.9849L404.704 3.51784C405.13 2.74838 405.094 1.80651 404.613 1.0706C404.13 0.334696 403.28 -0.0725987 402.405 0.0107116C401.529 0.0951788 400.772 0.656366 400.438 1.47095L391.637 19.8385C388.747 25.2144 383.134 28.5664 377.03 28.5607Z" fill="#FFCD00"/>
<path d="M331.806 40.0285C331.746 41.336 332.757 42.4445 334.065 42.5047H334.176C335.443 42.5059 336.488 41.5096 336.546 40.2438L337.059 29.0779C337.102 22.9742 340.497 17.389 345.894 14.5391L349.686 12.5396C353.497 10.5309 356.606 7.41143 358.603 3.5942C359.008 2.84325 358.978 1.93262 358.525 1.20944C358.071 0.487421 357.264 0.0639279 356.412 0.102112C355.56 0.139138 354.794 0.632057 354.406 1.39226C352.854 4.36135 350.434 6.78776 347.47 8.34982L343.678 10.3493C336.761 13.9906 332.4 21.1333 332.32 28.9494L331.806 40.0285Z" fill="#FF9811"/>
<path d="M402.571 49.8881H398.045C392.654 49.8695 387.723 52.9185 385.329 57.7481L382.398 63.6065C380.804 66.8278 377.515 68.8596 373.921 68.8458H367.025C365.716 68.8458 364.655 69.9068 364.655 71.2155C364.655 72.5241 365.716 73.5852 367.025 73.5852H373.921C379.312 73.6037 384.244 70.5548 386.638 65.7251L389.568 59.8668C391.163 56.6466 394.451 54.6136 398.045 54.6275H402.571C403.879 54.6275 404.94 53.5664 404.94 52.2578C404.94 50.9491 403.879 49.8881 402.571 49.8881Z" fill="#91DC5A"/>
<path d="M352.112 30.2361C353.01 29.307 352.998 27.8282 352.083 26.9141C351.169 26 349.692 25.9873 348.761 26.8852L346.392 29.2549C345.776 29.8508 345.53 30.7313 345.746 31.5598C345.962 32.3883 346.61 33.0351 347.439 33.2526C348.267 33.469 349.148 33.2225 349.743 32.6058L352.112 30.2361Z" fill="#FF3051"/>
<path d="M381.243 80.6943H376.504C375.195 80.6943 374.134 81.7554 374.134 83.064C374.134 84.3727 375.195 85.4338 376.504 85.4338H381.243C382.552 85.4338 383.613 84.3727 383.613 83.064C383.613 81.7554 382.552 80.6943 381.243 80.6943Z" fill="#FF9811"/>
<path d="M393.786 74.2794L391.416 76.6492C390.801 77.2451 390.554 78.1256 390.77 78.9541C390.987 79.7825 391.635 80.4294 392.463 80.6469C393.292 80.8633 394.172 80.6168 394.767 80.0001L397.137 77.6304C398.035 76.7012 398.022 75.2225 397.108 74.3084C396.194 73.3943 394.716 73.3815 393.786 74.2794Z" fill="#FFCD00"/>
<path d="M387.294 40.658L382.554 43.0277C381.383 43.6132 380.908 45.0364 381.492 46.2085C382.078 47.3795 383.501 47.8551 384.673 47.2696L389.412 44.8999C390.583 44.3155 391.059 42.8912 390.473 41.7202C389.889 40.5492 388.465 40.0737 387.294 40.658Z" fill="#FF9811"/>
<path d="M322 26.1909V28.5607C322 29.8693 323.061 30.9304 324.37 30.9304C325.678 30.9304 326.739 29.8693 326.739 28.5607V26.1909C326.739 24.8823 325.678 23.8212 324.37 23.8212C323.061 23.8212 322 24.8823 322 26.1909Z" fill="#FF3051"/>
<path d="M355.863 17.3994C355.18 18.0775 354.974 19.1015 355.343 19.9913C355.712 20.8799 356.582 21.4573 357.545 21.4515C357.696 21.448 357.846 21.4318 357.993 21.4041C358.151 21.3821 358.304 21.3347 358.446 21.2618C358.597 21.2097 358.74 21.1379 358.872 21.0489C358.996 20.9609 359.115 20.866 359.228 20.7642C360.158 19.8351 360.158 18.3285 359.228 17.3994C358.298 16.4703 356.792 16.4703 355.863 17.3994Z" fill="#FFCD00"/>
<path d="M341.998 4.46088C342.131 4.54997 342.276 4.62171 342.428 4.67378C342.569 4.74668 342.721 4.79412 342.878 4.8161C343.027 4.84387 343.177 4.86007 343.328 4.86354C343.478 4.86007 343.629 4.84387 343.776 4.8161C343.934 4.79412 344.087 4.74668 344.229 4.67378C344.374 4.62634 344.51 4.5546 344.632 4.46088C344.759 4.37757 344.877 4.28269 344.987 4.17623C345.684 3.50975 345.892 2.47879 345.509 1.59362C345.394 1.2974 345.216 1.03127 344.987 0.811427C344.877 0.706132 344.759 0.611251 344.632 0.526784C344.51 0.434217 344.374 0.361321 344.229 0.31388C344.087 0.242141 343.934 0.193543 343.776 0.171558C343.48 0.100976 343.173 0.100976 342.878 0.171558C342.721 0.193543 342.569 0.242141 342.428 0.31388C342.276 0.365949 342.131 0.437688 341.998 0.526784L341.645 0.811427C340.729 1.74635 340.729 3.24247 341.645 4.17623L341.998 4.46088Z" fill="#A25BCD"/>
<path d="M344.632 43.1816C344.51 43.089 344.374 43.0161 344.229 42.9687C344.087 42.897 343.934 42.8484 343.776 42.8264C343.48 42.7558 343.173 42.7558 342.878 42.8264C342.721 42.8484 342.569 42.897 342.428 42.9687C342.276 43.0208 342.131 43.0925 341.998 43.1816C341.876 43.2707 341.758 43.3656 341.645 43.4662C340.729 44.4012 340.729 45.8973 341.645 46.831L341.998 47.1157C342.131 47.2048 342.276 47.2765 342.428 47.3286C342.569 47.4015 342.721 47.4489 342.878 47.4709C343.027 47.4987 343.177 47.5149 343.328 47.5184C343.478 47.5149 343.629 47.4987 343.776 47.4709C343.934 47.4489 344.087 47.4015 344.229 47.3286C344.374 47.2812 344.51 47.2094 344.632 47.1157C344.759 47.0324 344.877 46.9375 344.987 46.831C345.436 46.3856 345.69 45.7816 345.697 45.1486C345.694 44.8397 345.629 44.5331 345.509 44.2484C345.394 43.9522 345.216 43.6861 344.987 43.4662C344.877 43.3609 344.759 43.2661 344.632 43.1816Z" fill="#2488FF"/>
<path d="M398.518 36.3571C398.31 36.5874 398.141 36.8523 398.02 37.1393C397.768 37.7132 397.768 38.367 398.02 38.9409C398.141 39.2278 398.31 39.4917 398.518 39.7219C398.969 40.1593 399.572 40.4058 400.2 40.4092C400.828 40.4 401.429 40.1547 401.883 39.7219C402.092 39.4917 402.261 39.2278 402.381 38.9409C402.634 38.367 402.634 37.7132 402.381 37.1393C402.261 36.8523 402.092 36.5874 401.883 36.3571C400.933 35.48 399.469 35.48 398.518 36.3571Z" fill="#57A4FF"/>
<path d="M388.352 7.23324C388.983 7.24018 389.589 6.99256 390.036 6.54708C390.481 6.10045 390.729 5.49413 390.722 4.86352C390.713 4.23638 390.467 3.63585 390.035 3.18112C389.085 2.30405 387.621 2.30405 386.67 3.18112C385.753 4.11604 385.753 5.61216 386.67 6.54593C387.124 6.97983 387.725 7.22514 388.352 7.23324Z" fill="#B2FA09"/>
<path d="M355.863 60.0542C355.18 60.7323 354.974 61.7563 355.343 62.6461C355.712 63.5348 356.582 64.1121 357.545 64.1064C357.696 64.1029 357.846 64.0867 357.993 64.0589C358.151 64.0369 358.304 63.9895 358.446 63.9166C358.597 63.8645 358.74 63.7928 358.872 63.7037L359.228 63.4191C360.158 62.4899 360.158 60.9834 359.228 60.0542C358.298 59.1251 356.792 59.1251 355.863 60.0542Z" fill="#FF3051"/>
<path d="M401.883 62.424C400.933 61.5469 399.469 61.5469 398.518 62.424C398.31 62.6542 398.141 62.9192 398.02 63.2062C397.768 63.7801 397.768 64.4338 398.02 65.0078C398.141 65.2947 398.31 65.5585 398.518 65.7888C398.969 66.2262 399.572 66.4726 400.2 66.4761C400.828 66.4668 401.429 66.2215 401.883 65.7888C402.092 65.5585 402.261 65.2947 402.381 65.0078C402.634 64.4338 402.634 63.7801 402.381 63.2062C402.261 62.9192 402.092 62.6542 401.883 62.424Z" fill="#ED539D"/>
<path d="M26.1266 14.3424C26.1266 16.9597 28.2476 19.0818 30.866 19.0818C33.4834 19.0818 35.6055 16.9597 35.6055 14.3424C35.6055 11.7251 33.4834 9.60297 30.866 9.60297C28.2476 9.60297 26.1266 11.7251 26.1266 14.3424Z" fill="#FF3051"/>
<path d="M30.8659 54.6275C30.8659 57.2448 32.9868 59.3669 35.6053 59.3669C38.2226 59.3669 40.3447 57.2448 40.3447 54.6275C40.3447 52.0102 38.2226 49.8881 35.6053 49.8881C32.9868 49.8881 30.8659 52.0102 30.8659 54.6275Z" fill="#FFCD00"/>
<path d="M73.5211 11.9727C73.5211 14.59 75.6421 16.7121 78.2606 16.7121C80.8779 16.7121 83 14.59 83 11.9727C83 9.35534 80.8779 7.23325 78.2606 7.23325C75.6421 7.23325 73.5211 9.35534 73.5211 11.9727Z" fill="#C2FB3B"/>
<path d="M27.9698 28.5607H32.2499C40.9778 28.5329 48.8344 33.852 52.0511 41.9667L56.7639 53.7458C57.251 54.9619 56.6598 56.3423 55.4437 56.8294C54.2287 57.3166 52.8483 56.7253 52.3612 55.5092L47.6507 43.7266C45.1491 37.4147 39.0373 33.2769 32.2476 33.3001H27.9675C20.0819 33.2989 12.8421 28.9471 9.14054 21.9849L0.295769 3.51784C-0.130039 2.74838 -0.0941696 1.80651 0.387177 1.0706C0.869682 0.334696 1.72014 -0.0725987 2.5949 0.0107116C3.47081 0.0951788 4.22755 0.656366 4.56195 1.47095L13.3627 19.8385C16.2531 25.2144 21.8662 28.5664 27.9698 28.5607Z" fill="#FFCD00"/>
<path d="M73.1937 40.0285C73.2539 41.336 72.2426 42.4445 70.9351 42.5047H70.824C69.557 42.5059 68.5122 41.5096 68.4543 40.2438L67.9406 29.0779C67.8978 22.9742 64.5029 17.389 59.1062 14.5391L55.3144 12.5396C51.503 10.5309 48.3939 7.41143 46.3968 3.5942C45.9918 2.84325 46.0219 1.93262 46.4755 1.20944C46.929 0.487421 47.7355 0.0639279 48.5883 0.102112C49.4399 0.139138 50.2059 0.632057 50.5935 1.39226C52.1463 4.36135 54.5658 6.78776 57.5303 8.34982L61.322 10.3493C68.2391 13.9906 72.6002 21.1333 72.68 28.9494L73.1937 40.0285Z" fill="#FF9811"/>
<path d="M2.42932 49.8881H6.95469C12.3456 49.8695 17.2771 52.9185 19.6711 57.7481L22.602 63.6065C24.1964 66.8278 27.4849 68.8596 31.0788 68.8458H37.975C39.2837 68.8458 40.3447 69.9068 40.3447 71.2155C40.3447 72.5241 39.2837 73.5852 37.975 73.5852H31.0788C25.6879 73.6037 20.7564 70.5548 18.3624 65.7251L15.4315 59.8668C13.837 56.6466 10.5486 54.6136 6.95469 54.6275H2.42932C1.12066 54.6275 0.0596085 53.5664 0.0596085 52.2578C0.0596085 50.9491 1.12066 49.8881 2.42932 49.8881Z" fill="#91DC5A"/>
<path d="M52.8877 30.2361C51.9898 29.307 52.0025 27.8282 52.9166 26.9141C53.8307 26 55.3083 25.9873 56.2386 26.8852L58.6083 29.2549C59.2239 29.8508 59.4703 30.7313 59.2539 31.5598C59.0376 32.3883 58.3896 33.0351 57.5611 33.2526C56.7327 33.469 55.8521 33.2225 55.2574 32.6058L52.8877 30.2361Z" fill="#FF3051"/>
<path d="M23.7571 80.6943H28.4965C29.8052 80.6943 30.8662 81.7554 30.8662 83.064C30.8662 84.3727 29.8052 85.4338 28.4965 85.4338H23.7571C22.4484 85.4338 21.3874 84.3727 21.3874 83.064C21.3874 81.7554 22.4484 80.6943 23.7571 80.6943Z" fill="#FF9811"/>
<path d="M11.2142 74.2794L13.5839 76.6492C14.1994 77.2451 14.4459 78.1256 14.2295 78.9541C14.0132 79.7825 13.3652 80.4294 12.5367 80.6469C11.7082 80.8633 10.8277 80.6168 10.233 80.0001L7.86324 77.6304C6.96534 76.7012 6.97807 75.2225 7.89217 74.3084C8.80627 73.3943 10.2839 73.3815 11.2142 74.2794Z" fill="#FFCD00"/>
<path d="M17.7063 40.658L22.4458 43.0277C23.6167 43.6132 24.0923 45.0364 23.508 46.2085C22.9225 47.3795 21.4993 47.8551 20.3271 47.2696L15.5877 44.8999C14.4167 44.3155 13.9412 42.8912 14.5267 41.7202C15.111 40.5492 16.5354 40.0737 17.7063 40.658Z" fill="#FF9811"/>
<path d="M83 26.1909V28.5607C83 29.8693 81.939 30.9304 80.6303 30.9304C79.3216 30.9304 78.2606 29.8693 78.2606 28.5607V26.1909C78.2606 24.8823 79.3216 23.8212 80.6303 23.8212C81.939 23.8212 83 24.8823 83 26.1909Z" fill="#FF3051"/>
<path d="M49.1373 17.3994C49.82 18.0775 50.0259 19.1015 49.6568 19.9913C49.2877 20.8799 48.4176 21.4573 47.4549 21.4515C47.3045 21.448 47.154 21.4318 47.0071 21.4041C46.8486 21.3821 46.6958 21.3347 46.5535 21.2618C46.4031 21.2097 46.2596 21.1379 46.1277 21.0489C46.0039 20.9609 45.8847 20.866 45.7725 20.7642C44.8422 19.8351 44.8422 18.3285 45.7725 17.3994C46.7016 16.4703 48.2081 16.4703 49.1373 17.3994Z" fill="#FFCD00"/>
<path d="M63.0018 4.46088C62.8687 4.54997 62.7241 4.62171 62.5725 4.67378C62.4313 4.74668 62.2786 4.79412 62.1224 4.8161C61.9731 4.84387 61.8227 4.86007 61.6723 4.86354C61.5219 4.86007 61.3714 4.84387 61.2245 4.8161C61.066 4.79412 60.9132 4.74668 60.7709 4.67378C60.6263 4.62634 60.4897 4.5546 60.3682 4.46088C60.241 4.37757 60.1229 4.28269 60.013 4.17623C59.3165 3.50975 59.1082 2.47879 59.4912 1.59362C59.6057 1.2974 59.7839 1.03127 60.013 0.811427C60.1229 0.706132 60.241 0.611251 60.3682 0.526784C60.4897 0.434217 60.6263 0.361321 60.7709 0.31388C60.9132 0.242141 61.066 0.193543 61.2245 0.171558C61.5195 0.100976 61.8273 0.100976 62.1224 0.171558C62.2786 0.193543 62.4313 0.242141 62.5725 0.31388C62.7241 0.365949 62.8687 0.437688 63.0018 0.526784L63.3547 0.811427C64.2711 1.74635 64.2711 3.24247 63.3547 4.17623L63.0018 4.46088Z" fill="#A25BCD"/>
<path d="M60.3682 43.1816C60.4897 43.089 60.6263 43.0161 60.7709 42.9687C60.9132 42.897 61.066 42.8484 61.2245 42.8264C61.5195 42.7558 61.8273 42.7558 62.1224 42.8264C62.2786 42.8484 62.4313 42.897 62.5725 42.9687C62.7241 43.0208 62.8687 43.0925 63.0018 43.1816C63.1244 43.2707 63.2424 43.3656 63.3547 43.4662C64.2711 44.4012 64.2711 45.8973 63.3547 46.831L63.0018 47.1157C62.8687 47.2048 62.7241 47.2765 62.5725 47.3286C62.4313 47.4015 62.2786 47.4489 62.1224 47.4709C61.9731 47.4987 61.8227 47.5149 61.6723 47.5184C61.5219 47.5149 61.3714 47.4987 61.2245 47.4709C61.066 47.4489 60.9132 47.4015 60.7709 47.3286C60.6263 47.2812 60.4897 47.2094 60.3682 47.1157C60.241 47.0324 60.1229 46.9375 60.013 46.831C59.5641 46.3856 59.3095 45.7816 59.3026 45.1486C59.306 44.8397 59.3708 44.5331 59.4912 44.2484C59.6057 43.9522 59.7839 43.6861 60.013 43.4662C60.1229 43.3609 60.241 43.2661 60.3682 43.1816Z" fill="#2488FF"/>
<path d="M6.48221 36.3571C6.69049 36.5874 6.85942 36.8523 6.97976 37.1393C7.23201 37.7132 7.23201 38.367 6.97976 38.9409C6.85942 39.2278 6.69049 39.4917 6.48221 39.7219C6.03095 40.1593 5.42811 40.4058 4.79981 40.4092C4.17151 40.4 3.57099 40.1547 3.11741 39.7219C2.90797 39.4917 2.73904 39.2278 2.6187 38.9409C2.36646 38.367 2.36646 37.7132 2.6187 37.1393C2.73904 36.8523 2.90797 36.5874 3.11741 36.3571C4.06738 35.48 5.53109 35.48 6.48221 36.3571Z" fill="#57A4FF"/>
<path d="M16.6479 7.23324C16.0173 7.24018 15.4109 6.99256 14.9643 6.54708C14.5188 6.10045 14.2712 5.49413 14.2782 4.86352C14.2874 4.23638 14.5327 3.63585 14.9655 3.18112C15.9154 2.30405 17.3791 2.30405 18.3303 3.18112C19.2467 4.11604 19.2467 5.61216 18.3303 6.54593C17.8755 6.97983 17.275 7.22514 16.6479 7.23324Z" fill="#B2FA09"/>
<path d="M49.1373 60.0542C49.82 60.7323 50.0259 61.7563 49.6568 62.6461C49.2877 63.5348 48.4176 64.1121 47.4549 64.1064C47.3045 64.1029 47.154 64.0867 47.0071 64.0589C46.8486 64.0369 46.6958 63.9895 46.5535 63.9166C46.4031 63.8645 46.2596 63.7928 46.1277 63.7037L45.7725 63.4191C44.8422 62.4899 44.8422 60.9834 45.7725 60.0542C46.7016 59.1251 48.2081 59.1251 49.1373 60.0542Z" fill="#FF3051"/>
<path d="M3.11741 62.424C4.06738 61.5469 5.53109 61.5469 6.48221 62.424C6.69049 62.6542 6.85942 62.9192 6.97976 63.2062C7.23201 63.7801 7.23201 64.4338 6.97976 65.0078C6.85942 65.2947 6.69049 65.5585 6.48221 65.7888C6.03095 66.2262 5.42811 66.4726 4.79981 66.4761C4.17151 66.4668 3.57099 66.2215 3.11741 65.7888C2.90797 65.5585 2.73904 65.2947 2.6187 65.0078C2.36646 64.4338 2.36646 63.7801 2.6187 63.2062C2.73904 62.9192 2.90797 62.6542 3.11741 62.424Z" fill="#ED539D"/>
</svg>
