<svg width="12" height="12" viewBox="0 0 12 12" fill="none" xmlns="http://www.w3.org/2000/svg">
<path d="M12 5.42857H6.57143V0H5.42857V5.42857H0V6.57143H5.42857V12H6.57143V6.57143H12V5.42857Z" fill="white"/>
</svg>
