<svg width="16" height="16" viewBox="0 0 16 16" fill="none" xmlns="http://www.w3.org/2000/svg">
<path d="M8 16C12.4183 16 16 12.4183 16 8C16 3.58172 12.4183 0 8 0C3.58172 0 0 3.58172 0 8C0 12.4183 3.58172 16 8 16Z" fill="#404040"/>
<path d="M5.12012 10.8801L8.00012 8.00012L10.8801 5.12012" stroke="white" stroke-miterlimit="10" stroke-linecap="round"/>
<path d="M5.12012 5.12012L8.00012 8.00012L10.8801 10.8801" stroke="white" stroke-miterlimit="10" stroke-linecap="round"/>
</svg>
